Lab1/Testbench/xsim.log
#-----------------------------------------------------------
# xsim v2022.1 (64-bit)
# SW Build 3526262 on Mon Apr 18 15:47:01 MDT 2022
# IP Build 3524634 on Mon Apr 18 20:55:01 MDT 2022
# Start of session at: Wed Mar 13 20:34:46 2024
# Process ID: 181797
# Current directory: /home/bl605/ASoC/caravel-soc_fpga-lab/fsic-sim/fsic_fpga/rtl/user/testbench/tc
# Command line: xsim -mode tcl -source {xsim.dir/tb_fsic_xelab/xsim_script.tcl}
# Log file: /home/bl605/ASoC/caravel-soc_fpga-lab/fsic-sim/fsic_fpga/rtl/user/testbench/tc/xsim.log
# Journal file: /home/bl605/ASoC/caravel-soc_fpga-lab/fsic-sim/fsic_fpga/rtl/user/testbench/tc/xsim.jou
# Running On: ubuntu, OS: Linux, CPU Frequency: 3398.031 MHz, CPU Physical cores: 8, Host memory: 33615 MB
#-----------------------------------------------------------
source xsim.dir/tb_fsic_xelab/xsim_script.tcl
# xsim {tb_fsic_xelab} -autoloadwcfg -tclbatch {log_wave.tcl}
Time resolution is 1 ps
open_wave_config /home/bl605/ASoC/caravel-soc_fpga-lab/fsic-sim/fsic_fpga/rtl/user/testbench/tc/tb_fsic_xelab.wcfg
WARNING: Simulation object /tb_fsic/dut/U_MPRJ_IO0/vccd1 was not found in the design.
WARNING: Simulation object /tb_fsic/dut/U_MPRJ_IO0/vccd2 was not found in the design.
WARNING: Simulation object /tb_fsic/dut/U_MPRJ_IO0/vssd1 was not found in the design.
WARNING: Simulation object /tb_fsic/dut/U_MPRJ_IO0/vssd2 was not found in the design.
WARNING: Simulation object /tb_fsic/vccd1 was not found in the design.
WARNING: Simulation object /tb_fsic/vccd2 was not found in the design.
WARNING: Simulation object /tb_fsic/vssd1 was not found in the design.
WARNING: Simulation object /tb_fsic/vssd2 was not found in the design.
WARNING: Simulation object /tb_fsic/idx1 was not found in the design.
WARNING: Simulation object /tb_fsic/idx2 was not found in the design.
WARNING: Simulation object /tb_fsic/idx3 was not found in the design.
WARNING: Simulation object /tb_fsic/idx6 was not found in the design.
WARNING: Simulation object /tb_fsic/CoreClkPhaseLoop was not found in the design.
WARNING: Simulation object /tb_fsic/dut/AXIS_SW0/pre_rd_ptr_reg was not found in the design.
WARNING: Simulation object /tb_fsic/dut/AXIS_SW0/as_up_tvalid_reg was not found in the design.
WARNING: Simulation object /tb_fsic/dut/AXIS_SW0/as_aa_tvalid_reg was not found in the design.
WARNING: Simulation object /tb_fsic/dut/AXIS_SW0/delaynext was not found in the design.
WARNING: Simulation object /tb_fsic/dut/AXIS_SW0/pre_m_axis was not found in the design.
WARNING: Simulation object /tb_fsic/dut/U_USER_SUBSYS0/U_USRPRJ0/reg_edgedetect_done was not found in the design.
WARNING: Simulation object /tb_fsic/dut/U_USER_SUBSYS0/U_USRPRJ0/edgedetect_done was not found in the design.
WARNING: Simulation object /tb_fsic/dut/U_USER_SUBSYS0/U_USRPRJ0/rd_state was not found in the design.
WARNING: Simulation object /tb_fsic/dut/U_USER_SUBSYS0/U_USRPRJ0/rd_next_state was not found in the design.
WARNING: Simulation object /tb_fsic/dut/U_USER_SUBSYS0/U_USRPRJ0/reg_widthIn was not found in the design.
WARNING: Simulation object /tb_fsic/dut/U_USER_SUBSYS0/U_USRPRJ0/reg_heightIn was not found in the design.
WARNING: Simulation object /tb_fsic/dut/U_USER_SUBSYS0/U_USRPRJ0/reg_sw_in was not found in the design.
WARNING: Simulation object /tb_fsic/dut/U_USER_SUBSYS0/U_USRPRJ0/reg_rst was not found in the design.
WARNING: Simulation object /tb_fsic/dut/U_USER_SUBSYS0/U_USRPRJ0/crc32_stream_in was not found in the design.
WARNING: Simulation object /tb_fsic/dut/U_USER_SUBSYS0/U_USRPRJ0/crc32_stream_out was not found in the design.
WARNING: Simulation object /tb_fsic/dut/U_USER_SUBSYS0/U_USRPRJ0/reg_crc32_stream_in was not found in the design.
WARNING: Simulation object /tb_fsic/dut/U_USER_SUBSYS0/U_USRPRJ0/reg_crc32_stream_out was not found in the design.
WARNING: Simulation object /tb_fsic/dut/AXIS_SW0/as_up_tvalid_reg was not found in the design.
WARNING: Simulation object /tb_fsic/dut/AXIS_SW0/pre_rd_ptr_reg was not found in the design.
WARNING: Simulation object /tb_fsic/dut/AXIS_SW0/as_up_tvalid_reg was not found in the design.
WARNING: Simulation object /tb_fsic/dut/AXIS_SW0/as_aa_tvalid_reg was not found in the design.
WARNING: Simulation object /tb_fsic/dut/AXIS_SW0/delaynext was not found in the design.
WARNING: Simulation object /tb_fsic/dut/AXIS_SW0/pre_m_axis was not found in the design.
source log_wave.tcl
## log_wave -quiet -verbose -recursive *
## run all
soc_fir: initialize fir from soc side
fsic_system_initial: initial fsic system
                 140=> soc POR Assert
                 140=> fpga POR Assert
                 140=> fpga reset Assert
                 180=> soc POR De-Assert
                 180=> fpga POR De-Assert
                 220=> fpga reset De-Assert
                 285=> fpga_as_to_is_init done
                 325=> fpga_cfg_write : fpga_axi_awaddr=0000, fpga_axi_awvalid=1, fpga_axi_awready=1, fpga_axi_wdata=00000001, axi_wstrb=1, fpga_axi_wvalid=1, fpga_axi_wready=1
                 525=> soc_is_cfg_write : wbs_adr=30003000, wbs_sel=0001, wbs_wdata=00000001
                 525=> soc rxen_ctl=1
                 525=> fpga rxen_ctl=1
                 965=> fpga_cfg_write : fpga_axi_awaddr=0000, fpga_axi_awvalid=1, fpga_axi_awready=1, fpga_axi_wdata=00000003, axi_wstrb=1, fpga_axi_wvalid=1, fpga_axi_wready=1
                1125=> soc_is_cfg_write : wbs_adr=30003000, wbs_sel=0001, wbs_wdata=00000003
                1125=> soc txen_ctl=1
                1125=> fpga txen_ctl=1
-----------------
change_user_prj: change user project
                1565=> soc_cfg_write : wbs_adr=30005000, wbs_sel=0001, wbs_wdata=00000001
                1805=> soc_cfg_read : wbs_adr=30005000, wbs_sel=0001
                1805=> soc wishbone read data result : send soc_cfg_read_event
                1805=> soc_cfg_read : got soc_cfg_read_event
                1805=> change_user_project [PASS] cfg_read_data_expect_value=00000001, cfg_read_data_captured=00000001
-----------------
check_idle: check ap_idle
                2045=> soc_up_cfg_read : wbs_adr=30000000, wbs_sel=0001
                2045=> soc wishbone read data result : send soc_cfg_read_event
                2045=> soc_up_cfg_read : got soc_cfg_read_event
-----------------
send_data_length: send data length
                2325=> soc_up_cfg_write : wbs_adr=30000010, wbs_sel=0001, wbs_wdata=00000040
-----------------
send_data_length: send data length
                2605=> soc_up_cfg_write : wbs_adr=30000020, wbs_sel=1111, wbs_wdata=00000000
                2885=> soc_up_cfg_write : wbs_adr=30000024, wbs_sel=1111, wbs_wdata=fffffff6
                3165=> soc_up_cfg_write : wbs_adr=30000028, wbs_sel=1111, wbs_wdata=fffffff7
                3445=> soc_up_cfg_write : wbs_adr=3000002c, wbs_sel=1111, wbs_wdata=00000017
                3725=> soc_up_cfg_write : wbs_adr=30000030, wbs_sel=1111, wbs_wdata=00000038
                4005=> soc_up_cfg_write : wbs_adr=30000034, wbs_sel=1111, wbs_wdata=0000003f
                4285=> soc_up_cfg_write : wbs_adr=30000038, wbs_sel=1111, wbs_wdata=00000038
                4565=> soc_up_cfg_write : wbs_adr=3000003c, wbs_sel=1111, wbs_wdata=00000017
                4845=> soc_up_cfg_write : wbs_adr=30000040, wbs_sel=1111, wbs_wdata=fffffff7
                5125=> soc_up_cfg_write : wbs_adr=30000044, wbs_sel=1111, wbs_wdata=fffffff6
                5405=> soc_up_cfg_write : wbs_adr=30000048, wbs_sel=1111, wbs_wdata=00000000
-----------------
check_data_length: check data length
                5645=> soc_up_cfg_read : wbs_adr=30000010, wbs_sel=1111
                5645=> soc wishbone read data result : send soc_cfg_read_event
                5645=> soc_up_cfg_read : got soc_cfg_read_event
                5645=> check_data_length [PASS] cfg_read_data_expect_value=00000040, cfg_read_data_captured=00000040
-----------------
check_tap_data: check tap data
                5925=> soc_up_cfg_read : wbs_adr=30000020, wbs_sel=1111
                5925=> soc wishbone read data result : send soc_cfg_read_event
                5925=> soc_up_cfg_read : got soc_cfg_read_event
                5925=> check_tap_data [PASS] cfg_read_data_expect_value=00000000, cfg_read_data_captured=00000000
                6205=> soc_up_cfg_read : wbs_adr=30000024, wbs_sel=1111
                6205=> soc wishbone read data result : send soc_cfg_read_event
                6205=> soc_up_cfg_read : got soc_cfg_read_event
                6205=> check_tap_data [PASS] cfg_read_data_expect_value=fffffff6, cfg_read_data_captured=fffffff6
                6485=> soc_up_cfg_read : wbs_adr=30000028, wbs_sel=1111
                6485=> soc wishbone read data result : send soc_cfg_read_event
                6485=> soc_up_cfg_read : got soc_cfg_read_event
                6485=> check_tap_data [PASS] cfg_read_data_expect_value=fffffff7, cfg_read_data_captured=fffffff7
                6765=> soc_up_cfg_read : wbs_adr=3000002c, wbs_sel=1111
                6765=> soc wishbone read data result : send soc_cfg_read_event
                6765=> soc_up_cfg_read : got soc_cfg_read_event
                6765=> check_tap_data [PASS] cfg_read_data_expect_value=00000017, cfg_read_data_captured=00000017
                7045=> soc_up_cfg_read : wbs_adr=30000030, wbs_sel=1111
                7045=> soc wishbone read data result : send soc_cfg_read_event
                7045=> soc_up_cfg_read : got soc_cfg_read_event
                7045=> check_tap_data [PASS] cfg_read_data_expect_value=00000038, cfg_read_data_captured=00000038
                7325=> soc_up_cfg_read : wbs_adr=30000034, wbs_sel=1111
                7325=> soc wishbone read data result : send soc_cfg_read_event
                7325=> soc_up_cfg_read : got soc_cfg_read_event
                7325=> check_tap_data [PASS] cfg_read_data_expect_value=0000003f, cfg_read_data_captured=0000003f
                7605=> soc_up_cfg_read : wbs_adr=30000038, wbs_sel=1111
                7605=> soc wishbone read data result : send soc_cfg_read_event
                7605=> soc_up_cfg_read : got soc_cfg_read_event
                7605=> check_tap_data [PASS] cfg_read_data_expect_value=00000038, cfg_read_data_captured=00000038
                7885=> soc_up_cfg_read : wbs_adr=3000003c, wbs_sel=1111
                7885=> soc wishbone read data result : send soc_cfg_read_event
                7885=> soc_up_cfg_read : got soc_cfg_read_event
                7885=> check_tap_data [PASS] cfg_read_data_expect_value=00000017, cfg_read_data_captured=00000017
                8165=> soc_up_cfg_read : wbs_adr=30000040, wbs_sel=1111
                8165=> soc wishbone read data result : send soc_cfg_read_event
                8165=> soc_up_cfg_read : got soc_cfg_read_event
                8165=> check_tap_data [PASS] cfg_read_data_expect_value=fffffff7, cfg_read_data_captured=fffffff7
                8445=> soc_up_cfg_read : wbs_adr=30000044, wbs_sel=1111
                8445=> soc wishbone read data result : send soc_cfg_read_event
                8445=> soc_up_cfg_read : got soc_cfg_read_event
                8445=> check_tap_data [PASS] cfg_read_data_expect_value=fffffff6, cfg_read_data_captured=fffffff6
                8725=> soc_up_cfg_read : wbs_adr=30000048, wbs_sel=1111
                8725=> soc wishbone read data result : send soc_cfg_read_event
                8725=> soc_up_cfg_read : got soc_cfg_read_event
                8725=> check_tap_data [PASS] cfg_read_data_expect_value=00000000, cfg_read_data_captured=00000000
-----------------
fir_start: set ap_start
                9005=> soc_up_cfg_write : wbs_adr=30000000, wbs_sel=0001, wbs_wdata=00000001
-----------------
mailbox_check: mailbox check
                9325=> soc_aa_cfg_write : wbs_adr=30002000, wbs_sel=1111, wbs_wdata=a5a5a5a5
                9805=> get soc_to_fpga_mailbox_write_addr_captured be : soc_to_fpga_mailbox_write_addr_captured =xxxxxxxx, fpga_is_as_tdata=f0002000
                9805=> get soc_to_fpga_mailbox_write_addr_captured af : soc_to_fpga_mailbox_write_addr_captured =f0002000, fpga_is_as_tdata=f0002000
               10045=> get soc_to_fpga_mailbox_write_data_captured be : soc_to_fpga_mailbox_write_data_captured =xxxxxxxx, fpga_is_as_tdata=a5a5a5a5
               10045=> get soc_to_fpga_mailbox_write_data_captured af : soc_to_fpga_mailbox_write_data_captured =a5a5a5a5, fpga_is_as_tdata=a5a5a5a5
               10045=> soc_to_fpga_mailbox_write_data_captured : send soc_to_fpga_mailbox_write_event
               10045=> mailbox_check : got soc_to_fpga_mailbox_write_event
-----------------
send_data_x: send data x
               10085=> fpga_axis_req send data, fpga_as_is_tupsb = 00000, fpga_as_is_tstrb = 0000, fpga_as_is_tkeep = 0000, fpga_as_is_tlast = 0, fpga_as_is_tdata = 00000000
               10125=> fpga_axis_req send data, fpga_as_is_tupsb = 00001, fpga_as_is_tstrb = 0000, fpga_as_is_tkeep = 0000, fpga_as_is_tlast = 0, fpga_as_is_tdata = 00000001
               10165=> fpga_axis_req send data, fpga_as_is_tupsb = 00010, fpga_as_is_tstrb = 0000, fpga_as_is_tkeep = 0000, fpga_as_is_tlast = 0, fpga_as_is_tdata = 00000002
               10205=> fpga_axis_req send data, fpga_as_is_tupsb = 00011, fpga_as_is_tstrb = 0000, fpga_as_is_tkeep = 0000, fpga_as_is_tlast = 0, fpga_as_is_tdata = 00000003
               10245=> fpga_axis_req send data, fpga_as_is_tupsb = 00100, fpga_as_is_tstrb = 0000, fpga_as_is_tkeep = 0000, fpga_as_is_tlast = 0, fpga_as_is_tdata = 00000004
               10285=> fpga_axis_req send data, fpga_as_is_tupsb = 00101, fpga_as_is_tstrb = 0000, fpga_as_is_tkeep = 0000, fpga_as_is_tlast = 0, fpga_as_is_tdata = 00000005
               10325=> fpga_axis_req send data, fpga_as_is_tupsb = 00110, fpga_as_is_tstrb = 0000, fpga_as_is_tkeep = 0000, fpga_as_is_tlast = 0, fpga_as_is_tdata = 00000006
               10365=> fpga_axis_req send data, fpga_as_is_tupsb = 00111, fpga_as_is_tstrb = 0000, fpga_as_is_tkeep = 0000, fpga_as_is_tlast = 0, fpga_as_is_tdata = 00000007
               10405=> fpga_axis_req send data, fpga_as_is_tupsb = 01000, fpga_as_is_tstrb = 0000, fpga_as_is_tkeep = 0000, fpga_as_is_tlast = 0, fpga_as_is_tdata = 00000008
               10445=> fpga_axis_req send data, fpga_as_is_tupsb = 01001, fpga_as_is_tstrb = 0000, fpga_as_is_tkeep = 0000, fpga_as_is_tlast = 0, fpga_as_is_tdata = 00000009
               10485=> fpga_axis_req send data, fpga_as_is_tupsb = 01010, fpga_as_is_tstrb = 0000, fpga_as_is_tkeep = 0000, fpga_as_is_tlast = 0, fpga_as_is_tdata = 0000000a
               10525=> fpga_axis_req send data, fpga_as_is_tupsb = 01011, fpga_as_is_tstrb = 0000, fpga_as_is_tkeep = 0000, fpga_as_is_tlast = 0, fpga_as_is_tdata = 0000000b
               10565=> fpga_axis_req send data, fpga_as_is_tupsb = 01100, fpga_as_is_tstrb = 0000, fpga_as_is_tkeep = 0000, fpga_as_is_tlast = 0, fpga_as_is_tdata = 0000000c
               10605=> fpga_axis_req send data, fpga_as_is_tupsb = 01101, fpga_as_is_tstrb = 0000, fpga_as_is_tkeep = 0000, fpga_as_is_tlast = 0, fpga_as_is_tdata = 0000000d
               10645=> fpga_axis_req send data, fpga_as_is_tupsb = 01110, fpga_as_is_tstrb = 0000, fpga_as_is_tkeep = 0000, fpga_as_is_tlast = 0, fpga_as_is_tdata = 0000000e
               10685=> fpga_axis_req send data, fpga_as_is_tupsb = 01111, fpga_as_is_tstrb = 0000, fpga_as_is_tkeep = 0000, fpga_as_is_tlast = 0, fpga_as_is_tdata = 0000000f
               10725=> fpga_axis_req send data, fpga_as_is_tupsb = 10000, fpga_as_is_tstrb = 0000, fpga_as_is_tkeep = 0000, fpga_as_is_tlast = 0, fpga_as_is_tdata = 00000010
               15605=> fpga_axis_req send data, fpga_as_is_tupsb = 10001, fpga_as_is_tstrb = 0000, fpga_as_is_tkeep = 0000, fpga_as_is_tlast = 0, fpga_as_is_tdata = 00000011
               15645=> fpga_axis_req send data, fpga_as_is_tupsb = 10010, fpga_as_is_tstrb = 0000, fpga_as_is_tkeep = 0000, fpga_as_is_tlast = 0, fpga_as_is_tdata = 00000012
               15685=> fpga_axis_req send data, fpga_as_is_tupsb = 10011, fpga_as_is_tstrb = 0000, fpga_as_is_tkeep = 0000, fpga_as_is_tlast = 0, fpga_as_is_tdata = 00000013
               15725=> fpga_axis_req send data, fpga_as_is_tupsb = 10100, fpga_as_is_tstrb = 0000, fpga_as_is_tkeep = 0000, fpga_as_is_tlast = 0, fpga_as_is_tdata = 00000014
               15765=> fpga_axis_req send data, fpga_as_is_tupsb = 10101, fpga_as_is_tstrb = 0000, fpga_as_is_tkeep = 0000, fpga_as_is_tlast = 0, fpga_as_is_tdata = 00000015
               15805=> fpga_axis_req send data, fpga_as_is_tupsb = 10110, fpga_as_is_tstrb = 0000, fpga_as_is_tkeep = 0000, fpga_as_is_tlast = 0, fpga_as_is_tdata = 00000016
               15845=> fpga_axis_req send data, fpga_as_is_tupsb = 10111, fpga_as_is_tstrb = 0000, fpga_as_is_tkeep = 0000, fpga_as_is_tlast = 0, fpga_as_is_tdata = 00000017
               15885=> fpga_axis_req send data, fpga_as_is_tupsb = 11000, fpga_as_is_tstrb = 0000, fpga_as_is_tkeep = 0000, fpga_as_is_tlast = 0, fpga_as_is_tdata = 00000018
               15925=> fpga_axis_req send data, fpga_as_is_tupsb = 11001, fpga_as_is_tstrb = 0000, fpga_as_is_tkeep = 0000, fpga_as_is_tlast = 0, fpga_as_is_tdata = 00000019
               20645=> fpga_axis_req send data, fpga_as_is_tupsb = 11010, fpga_as_is_tstrb = 0000, fpga_as_is_tkeep = 0000, fpga_as_is_tlast = 0, fpga_as_is_tdata = 0000001a
               20685=> fpga_axis_req send data, fpga_as_is_tupsb = 11011, fpga_as_is_tstrb = 0000, fpga_as_is_tkeep = 0000, fpga_as_is_tlast = 0, fpga_as_is_tdata = 0000001b
               20725=> fpga_axis_req send data, fpga_as_is_tupsb = 11100, fpga_as_is_tstrb = 0000, fpga_as_is_tkeep = 0000, fpga_as_is_tlast = 0, fpga_as_is_tdata = 0000001c
               20765=> fpga_axis_req send data, fpga_as_is_tupsb = 11101, fpga_as_is_tstrb = 0000, fpga_as_is_tkeep = 0000, fpga_as_is_tlast = 0, fpga_as_is_tdata = 0000001d
               20805=> fpga_axis_req send data, fpga_as_is_tupsb = 11110, fpga_as_is_tstrb = 0000, fpga_as_is_tkeep = 0000, fpga_as_is_tlast = 0, fpga_as_is_tdata = 0000001e
               20845=> fpga_axis_req send data, fpga_as_is_tupsb = 11111, fpga_as_is_tstrb = 0000, fpga_as_is_tkeep = 0000, fpga_as_is_tlast = 0, fpga_as_is_tdata = 0000001f
               20885=> fpga_axis_req send data, fpga_as_is_tupsb = 00000, fpga_as_is_tstrb = 0000, fpga_as_is_tkeep = 0000, fpga_as_is_tlast = 0, fpga_as_is_tdata = 00000020
               20925=> fpga_axis_req send data, fpga_as_is_tupsb = 00001, fpga_as_is_tstrb = 0000, fpga_as_is_tkeep = 0000, fpga_as_is_tlast = 0, fpga_as_is_tdata = 00000021
               20965=> fpga_axis_req send data, fpga_as_is_tupsb = 00010, fpga_as_is_tstrb = 0000, fpga_as_is_tkeep = 0000, fpga_as_is_tlast = 0, fpga_as_is_tdata = 00000022
               25685=> fpga_axis_req send data, fpga_as_is_tupsb = 00011, fpga_as_is_tstrb = 0000, fpga_as_is_tkeep = 0000, fpga_as_is_tlast = 0, fpga_as_is_tdata = 00000023
               25725=> fpga_axis_req send data, fpga_as_is_tupsb = 00100, fpga_as_is_tstrb = 0000, fpga_as_is_tkeep = 0000, fpga_as_is_tlast = 0, fpga_as_is_tdata = 00000024
               25765=> fpga_axis_req send data, fpga_as_is_tupsb = 00101, fpga_as_is_tstrb = 0000, fpga_as_is_tkeep = 0000, fpga_as_is_tlast = 0, fpga_as_is_tdata = 00000025
               25805=> fpga_axis_req send data, fpga_as_is_tupsb = 00110, fpga_as_is_tstrb = 0000, fpga_as_is_tkeep = 0000, fpga_as_is_tlast = 0, fpga_as_is_tdata = 00000026
               25845=> fpga_axis_req send data, fpga_as_is_tupsb = 00111, fpga_as_is_tstrb = 0000, fpga_as_is_tkeep = 0000, fpga_as_is_tlast = 0, fpga_as_is_tdata = 00000027
               25885=> fpga_axis_req send data, fpga_as_is_tupsb = 01000, fpga_as_is_tstrb = 0000, fpga_as_is_tkeep = 0000, fpga_as_is_tlast = 0, fpga_as_is_tdata = 00000028
               25925=> fpga_axis_req send data, fpga_as_is_tupsb = 01001, fpga_as_is_tstrb = 0000, fpga_as_is_tkeep = 0000, fpga_as_is_tlast = 0, fpga_as_is_tdata = 00000029
               25965=> fpga_axis_req send data, fpga_as_is_tupsb = 01010, fpga_as_is_tstrb = 0000, fpga_as_is_tkeep = 0000, fpga_as_is_tlast = 0, fpga_as_is_tdata = 0000002a
               26005=> fpga_axis_req send data, fpga_as_is_tupsb = 01011, fpga_as_is_tstrb = 0000, fpga_as_is_tkeep = 0000, fpga_as_is_tlast = 0, fpga_as_is_tdata = 0000002b
               30725=> fpga_axis_req send data, fpga_as_is_tupsb = 01100, fpga_as_is_tstrb = 0000, fpga_as_is_tkeep = 0000, fpga_as_is_tlast = 0, fpga_as_is_tdata = 0000002c
               30765=> fpga_axis_req send data, fpga_as_is_tupsb = 01101, fpga_as_is_tstrb = 0000, fpga_as_is_tkeep = 0000, fpga_as_is_tlast = 0, fpga_as_is_tdata = 0000002d
               30805=> fpga_axis_req send data, fpga_as_is_tupsb = 01110, fpga_as_is_tstrb = 0000, fpga_as_is_tkeep = 0000, fpga_as_is_tlast = 0, fpga_as_is_tdata = 0000002e
               30845=> fpga_axis_req send data, fpga_as_is_tupsb = 01111, fpga_as_is_tstrb = 0000, fpga_as_is_tkeep = 0000, fpga_as_is_tlast = 0, fpga_as_is_tdata = 0000002f
               30885=> fpga_axis_req send data, fpga_as_is_tupsb = 10000, fpga_as_is_tstrb = 0000, fpga_as_is_tkeep = 0000, fpga_as_is_tlast = 0, fpga_as_is_tdata = 00000030
               30925=> fpga_axis_req send data, fpga_as_is_tupsb = 10001, fpga_as_is_tstrb = 0000, fpga_as_is_tkeep = 0000, fpga_as_is_tlast = 0, fpga_as_is_tdata = 00000031
               30965=> fpga_axis_req send data, fpga_as_is_tupsb = 10010, fpga_as_is_tstrb = 0000, fpga_as_is_tkeep = 0000, fpga_as_is_tlast = 0, fpga_as_is_tdata = 00000032
               31005=> fpga_axis_req send data, fpga_as_is_tupsb = 10011, fpga_as_is_tstrb = 0000, fpga_as_is_tkeep = 0000, fpga_as_is_tlast = 0, fpga_as_is_tdata = 00000033
               31045=> fpga_axis_req send data, fpga_as_is_tupsb = 10100, fpga_as_is_tstrb = 0000, fpga_as_is_tkeep = 0000, fpga_as_is_tlast = 0, fpga_as_is_tdata = 00000034
               35765=> fpga_axis_req send data, fpga_as_is_tupsb = 10101, fpga_as_is_tstrb = 0000, fpga_as_is_tkeep = 0000, fpga_as_is_tlast = 0, fpga_as_is_tdata = 00000035
               35805=> fpga_axis_req send data, fpga_as_is_tupsb = 10110, fpga_as_is_tstrb = 0000, fpga_as_is_tkeep = 0000, fpga_as_is_tlast = 0, fpga_as_is_tdata = 00000036
               35845=> fpga_axis_req send data, fpga_as_is_tupsb = 10111, fpga_as_is_tstrb = 0000, fpga_as_is_tkeep = 0000, fpga_as_is_tlast = 0, fpga_as_is_tdata = 00000037
               35885=> fpga_axis_req send data, fpga_as_is_tupsb = 11000, fpga_as_is_tstrb = 0000, fpga_as_is_tkeep = 0000, fpga_as_is_tlast = 0, fpga_as_is_tdata = 00000038
               35925=> fpga_axis_req send data, fpga_as_is_tupsb = 11001, fpga_as_is_tstrb = 0000, fpga_as_is_tkeep = 0000, fpga_as_is_tlast = 0, fpga_as_is_tdata = 00000039
               35965=> fpga_axis_req send data, fpga_as_is_tupsb = 11010, fpga_as_is_tstrb = 0000, fpga_as_is_tkeep = 0000, fpga_as_is_tlast = 0, fpga_as_is_tdata = 0000003a
               36005=> fpga_axis_req send data, fpga_as_is_tupsb = 11011, fpga_as_is_tstrb = 0000, fpga_as_is_tkeep = 0000, fpga_as_is_tlast = 0, fpga_as_is_tdata = 0000003b
               36045=> fpga_axis_req send data, fpga_as_is_tupsb = 11100, fpga_as_is_tstrb = 0000, fpga_as_is_tkeep = 0000, fpga_as_is_tlast = 0, fpga_as_is_tdata = 0000003c
               36085=> fpga_axis_req send data, fpga_as_is_tupsb = 11101, fpga_as_is_tstrb = 0000, fpga_as_is_tkeep = 0000, fpga_as_is_tlast = 0, fpga_as_is_tdata = 0000003d
               40805=> fpga_axis_req send data, fpga_as_is_tupsb = 11110, fpga_as_is_tstrb = 0000, fpga_as_is_tkeep = 0000, fpga_as_is_tlast = 0, fpga_as_is_tdata = 0000003e
               40845=> fpga_axis_req send data, fpga_as_is_tupsb = 11111, fpga_as_is_tstrb = 0000, fpga_as_is_tkeep = 0000, fpga_as_is_tlast = 1, fpga_as_is_tdata = 0000003f
               40885=> wait for soc_to_fpga_axis_event
               46285=> soc_to_fpga_axis_expect_count =  64
               46285=> soc_to_fpga_axis_captured_count =  64
-----------------
check_data_y: check data y
               46285=> check_data_y [PASS] soc_to_fpga_axis_expect_count =  64, soc_to_fpga_axis_captured_count =  64
               46285=> check_data_y [PASS] index=         0, soc_to_fpga_axis_expect_value[         0] = 000000000000, soc_to_fpga_axis_captured[         0]  = 000000000000
               46285=> check_data_y [PASS] index=         1, soc_to_fpga_axis_expect_value[         1] = 020000000000, soc_to_fpga_axis_captured[         1]  = 020000000000
               46285=> check_data_y [PASS] index=         2, soc_to_fpga_axis_expect_value[         2] = 0400fffffff6, soc_to_fpga_axis_captured[         2]  = 0400fffffff6
               46285=> check_data_y [PASS] index=         3, soc_to_fpga_axis_expect_value[         3] = 0600ffffffe3, soc_to_fpga_axis_captured[         3]  = 0600ffffffe3
               46285=> check_data_y [PASS] index=         4, soc_to_fpga_axis_expect_value[         4] = 0800ffffffe7, soc_to_fpga_axis_captured[         4]  = 0800ffffffe7
               46285=> check_data_y [PASS] index=         5, soc_to_fpga_axis_expect_value[         5] = 0a0000000023, soc_to_fpga_axis_captured[         5]  = 0a0000000023
               46285=> check_data_y [PASS] index=         6, soc_to_fpga_axis_expect_value[         6] = 0c000000009e, soc_to_fpga_axis_captured[         6]  = 0c000000009e
               46285=> check_data_y [PASS] index=         7, soc_to_fpga_axis_expect_value[         7] = 0e0000000151, soc_to_fpga_axis_captured[         7]  = 0e0000000151
               46285=> check_data_y [PASS] index=         8, soc_to_fpga_axis_expect_value[         8] = 10000000021b, soc_to_fpga_axis_captured[         8]  = 10000000021b
               46285=> check_data_y [PASS] index=         9, soc_to_fpga_axis_expect_value[         9] = 1200000002dc, soc_to_fpga_axis_captured[         9]  = 1200000002dc
               46285=> check_data_y [PASS] index=        10, soc_to_fpga_axis_expect_value[        10] = 140000000393, soc_to_fpga_axis_captured[        10]  = 140000000393
               46285=> check_data_y [PASS] index=        11, soc_to_fpga_axis_expect_value[        11] = 16000000044a, soc_to_fpga_axis_captured[        11]  = 16000000044a
               46285=> check_data_y [PASS] index=        12, soc_to_fpga_axis_expect_value[        12] = 180000000501, soc_to_fpga_axis_captured[        12]  = 180000000501
               46285=> check_data_y [PASS] index=        13, soc_to_fpga_axis_expect_value[        13] = 1a00000005b8, soc_to_fpga_axis_captured[        13]  = 1a00000005b8
               46285=> check_data_y [PASS] index=        14, soc_to_fpga_axis_expect_value[        14] = 1c000000066f, soc_to_fpga_axis_captured[        14]  = 1c000000066f
               46285=> check_data_y [PASS] index=        15, soc_to_fpga_axis_expect_value[        15] = 1e0000000726, soc_to_fpga_axis_captured[        15]  = 1e0000000726
               46285=> check_data_y [PASS] index=        16, soc_to_fpga_axis_expect_value[        16] = 2000000007dd, soc_to_fpga_axis_captured[        16]  = 2000000007dd
               46285=> check_data_y [PASS] index=        17, soc_to_fpga_axis_expect_value[        17] = 220000000894, soc_to_fpga_axis_captured[        17]  = 220000000894
               46285=> check_data_y [PASS] index=        18, soc_to_fpga_axis_expect_value[        18] = 24000000094b, soc_to_fpga_axis_captured[        18]  = 24000000094b
               46285=> check_data_y [PASS] index=        19, soc_to_fpga_axis_expect_value[        19] = 260000000a02, soc_to_fpga_axis_captured[        19]  = 260000000a02
               46285=> check_data_y [PASS] index=        20, soc_to_fpga_axis_expect_value[        20] = 280000000ab9, soc_to_fpga_axis_captured[        20]  = 280000000ab9
               46285=> check_data_y [PASS] index=        21, soc_to_fpga_axis_expect_value[        21] = 2a0000000b70, soc_to_fpga_axis_captured[        21]  = 2a0000000b70
               46285=> check_data_y [PASS] index=        22, soc_to_fpga_axis_expect_value[        22] = 2c0000000c27, soc_to_fpga_axis_captured[        22]  = 2c0000000c27
               46285=> check_data_y [PASS] index=        23, soc_to_fpga_axis_expect_value[        23] = 2e0000000cde, soc_to_fpga_axis_captured[        23]  = 2e0000000cde
               46285=> check_data_y [PASS] index=        24, soc_to_fpga_axis_expect_value[        24] = 300000000d95, soc_to_fpga_axis_captured[        24]  = 300000000d95
               46285=> check_data_y [PASS] index=        25, soc_to_fpga_axis_expect_value[        25] = 320000000e4c, soc_to_fpga_axis_captured[        25]  = 320000000e4c
               46285=> check_data_y [PASS] index=        26, soc_to_fpga_axis_expect_value[        26] = 340000000f03, soc_to_fpga_axis_captured[        26]  = 340000000f03
               46285=> check_data_y [PASS] index=        27, soc_to_fpga_axis_expect_value[        27] = 360000000fba, soc_to_fpga_axis_captured[        27]  = 360000000fba
               46285=> check_data_y [PASS] index=        28, soc_to_fpga_axis_expect_value[        28] = 380000001071, soc_to_fpga_axis_captured[        28]  = 380000001071
               46285=> check_data_y [PASS] index=        29, soc_to_fpga_axis_expect_value[        29] = 3a0000001128, soc_to_fpga_axis_captured[        29]  = 3a0000001128
               46285=> check_data_y [PASS] index=        30, soc_to_fpga_axis_expect_value[        30] = 3c00000011df, soc_to_fpga_axis_captured[        30]  = 3c00000011df
